EESchema Schematic File Version 4
EELAYER 30 0
EELAYER END
$Descr A4 11693 8268
encoding utf-8
Sheet 1 2
Title ""
Date ""
Rev ""
Comp ""
Comment1 ""
Comment2 ""
Comment3 ""
Comment4 ""
$EndDescr
Wire Wire Line
	4150 2650 4150 2500
Wire Wire Line
	4150 2500 5200 2500
Wire Wire Line
	3400 2650 3400 2400
Wire Wire Line
	3400 2400 5200 2400
$Comp
L Device:C_Small C1
U 1 1 6144A0DE
P 3400 2850
F 0 "C1" H 3492 2896 50  0000 L CNN
F 1 "22p" H 3492 2805 50  0000 L CNN
F 2 "Capacitor_SMD:C_0805_2012Metric_Pad1.18x1.45mm_HandSolder" H 3400 2850 50  0001 C CNN
F 3 "~" H 3400 2850 50  0001 C CNN
	1    3400 2850
	1    0    0    -1  
$EndComp
$Comp
L Device:C_Small C2
U 1 1 6144AECE
P 4150 2850
F 0 "C2" H 4242 2896 50  0000 L CNN
F 1 "22p" H 4242 2805 50  0000 L CNN
F 2 "Capacitor_SMD:C_0805_2012Metric_Pad1.18x1.45mm_HandSolder" H 4150 2850 50  0001 C CNN
F 3 "~" H 4150 2850 50  0001 C CNN
	1    4150 2850
	1    0    0    -1  
$EndComp
Wire Wire Line
	3400 2650 3400 2750
Connection ~ 3400 2650
Wire Wire Line
	4150 2650 4150 2750
Connection ~ 4150 2650
Wire Wire Line
	4150 2950 4150 3050
Wire Wire Line
	4150 3050 3800 3050
Connection ~ 3800 3050
Wire Wire Line
	3800 3050 3800 3200
Wire Wire Line
	3400 2950 3400 3050
Wire Wire Line
	3400 3050 3800 3050
$Comp
L Device:C_Small C3
U 1 1 61451658
P 1900 2600
F 0 "C3" H 1992 2646 50  0000 L CNN
F 1 "0.1u" H 1992 2555 50  0000 L CNN
F 2 "Capacitor_SMD:C_0805_2012Metric_Pad1.18x1.45mm_HandSolder" H 1900 2600 50  0001 C CNN
F 3 "~" H 1900 2600 50  0001 C CNN
	1    1900 2600
	1    0    0    -1  
$EndComp
$Comp
L Device:C_Small C4
U 1 1 61451E81
P 2200 2600
F 0 "C4" H 2292 2646 50  0000 L CNN
F 1 "0.1u" H 2292 2555 50  0000 L CNN
F 2 "Capacitor_SMD:C_0805_2012Metric_Pad1.18x1.45mm_HandSolder" H 2200 2600 50  0001 C CNN
F 3 "~" H 2200 2600 50  0001 C CNN
	1    2200 2600
	1    0    0    -1  
$EndComp
$Comp
L Device:C_Small C5
U 1 1 614527FB
P 2500 2600
F 0 "C5" H 2592 2646 50  0000 L CNN
F 1 "0.1u" H 2592 2555 50  0000 L CNN
F 2 "Capacitor_SMD:C_0805_2012Metric_Pad1.18x1.45mm_HandSolder" H 2500 2600 50  0001 C CNN
F 3 "~" H 2500 2600 50  0001 C CNN
	1    2500 2600
	1    0    0    -1  
$EndComp
$Comp
L Device:C_Small C7
U 1 1 614537B5
P 3100 2600
F 0 "C7" H 3192 2646 50  0000 L CNN
F 1 "10u" H 3192 2555 50  0000 L CNN
F 2 "Capacitor_SMD:C_0805_2012Metric_Pad1.18x1.45mm_HandSolder" H 3100 2600 50  0001 C CNN
F 3 "~" H 3100 2600 50  0001 C CNN
	1    3100 2600
	1    0    0    -1  
$EndComp
Wire Wire Line
	1900 2200 1900 2350
Wire Wire Line
	1900 2350 2200 2350
Wire Wire Line
	2200 2350 2200 2500
Connection ~ 1900 2350
Wire Wire Line
	1900 2350 1900 2500
Wire Wire Line
	2200 2350 2500 2350
Wire Wire Line
	2500 2350 2500 2500
Connection ~ 2200 2350
Connection ~ 2500 2350
Wire Wire Line
	3100 2350 3100 2500
Wire Wire Line
	1900 2700 1900 2800
Wire Wire Line
	1900 2800 2200 2800
Wire Wire Line
	2200 2800 2200 2700
Connection ~ 1900 2800
Wire Wire Line
	1900 2800 1900 3000
Wire Wire Line
	2200 2800 2500 2800
Wire Wire Line
	2500 2800 2500 2700
Connection ~ 2200 2800
Connection ~ 2500 2800
Wire Wire Line
	3100 2800 3100 2700
$Comp
L Device:R R2
U 1 1 614C8A29
P 8050 4450
F 0 "R2" V 8257 4450 50  0000 C CNN
F 1 "10k" V 8166 4450 50  0000 C CNN
F 2 "Resistor_SMD:R_0805_2012Metric_Pad1.20x1.40mm_HandSolder" V 7980 4450 50  0001 C CNN
F 3 "~" H 8050 4450 50  0001 C CNN
	1    8050 4450
	1    0    0    -1  
$EndComp
$Comp
L power:GND #PWR0103
U 1 1 6154DE46
P 4400 5050
F 0 "#PWR0103" H 4400 4800 50  0001 C CNN
F 1 "GND" H 4405 4877 50  0000 C CNN
F 2 "" H 4400 5050 50  0001 C CNN
F 3 "" H 4400 5050 50  0001 C CNN
	1    4400 5050
	1    0    0    -1  
$EndComp
$Comp
L power:GND #PWR0106
U 1 1 61551569
P 1900 3000
F 0 "#PWR0106" H 1900 2750 50  0001 C CNN
F 1 "GND" H 1905 2827 50  0000 C CNN
F 2 "" H 1900 3000 50  0001 C CNN
F 3 "" H 1900 3000 50  0001 C CNN
	1    1900 3000
	1    0    0    -1  
$EndComp
$Comp
L power:GND #PWR0110
U 1 1 615544E8
P 5600 3850
F 0 "#PWR0110" H 5600 3600 50  0001 C CNN
F 1 "GND" V 5605 3722 50  0000 R CNN
F 2 "" H 5600 3850 50  0001 C CNN
F 3 "" H 5600 3850 50  0001 C CNN
	1    5600 3850
	1    0    0    -1  
$EndComp
$Comp
L power:GND #PWR0112
U 1 1 61555C6A
P 6300 5500
F 0 "#PWR0112" H 6300 5250 50  0001 C CNN
F 1 "GND" V 6305 5372 50  0000 R CNN
F 2 "" H 6300 5500 50  0001 C CNN
F 3 "" H 6300 5500 50  0001 C CNN
	1    6300 5500
	1    0    0    -1  
$EndComp
$Comp
L power:GND #PWR0114
U 1 1 615576D8
P 8050 4750
F 0 "#PWR0114" H 8050 4500 50  0001 C CNN
F 1 "GND" V 8055 4622 50  0000 R CNN
F 2 "" H 8050 4750 50  0001 C CNN
F 3 "" H 8050 4750 50  0001 C CNN
	1    8050 4750
	1    0    0    -1  
$EndComp
$Comp
L Connector:AVR-ISP-6 J2
U 1 1 6155D055
P 9300 3300
F 0 "J2" H 8971 3396 50  0000 R CNN
F 1 "AVR-ISP-6" H 8971 3305 50  0000 R CNN
F 2 "random-keyboard-parts:Reset_Pretty-Mask" V 9050 3350 50  0001 C CNN
F 3 " ~" H 8025 2750 50  0001 C CNN
	1    9300 3300
	1    0    0    -1  
$EndComp
Text GLabel 9700 3100 2    50   Input ~ 0
MISO
Text GLabel 9700 3200 2    50   Input ~ 0
MOSI
Text GLabel 9700 3300 2    50   Input ~ 0
SCK
Text GLabel 9700 3400 2    50   Input ~ 0
RESET
Text GLabel 5750 2100 0    50   Input ~ 0
RESET
$Comp
L power:GND #PWR0119
U 1 1 61578F69
P 9200 3850
F 0 "#PWR0119" H 9200 3600 50  0001 C CNN
F 1 "GND" H 9205 3677 50  0000 C CNN
F 2 "" H 9200 3850 50  0001 C CNN
F 3 "" H 9200 3850 50  0001 C CNN
	1    9200 3850
	1    0    0    -1  
$EndComp
Wire Wire Line
	9200 3700 9200 3850
Text GLabel 7850 2200 2    50   Input ~ 0
SCK
Text GLabel 7850 2300 2    50   Input ~ 0
MOSI
Text GLabel 7850 2400 2    50   Input ~ 0
MISO
$Comp
L Device:Crystal_GND24_Small Y1
U 1 1 6159B875
P 3800 2650
F 0 "Y1" H 3944 2696 50  0000 L CNN
F 1 "Crystal_GND24_Small" H 3944 2605 50  0000 L CNN
F 2 "Crystal:Crystal_SMD_3225-4Pin_3.2x2.5mm_HandSoldering" H 3800 2650 50  0001 C CNN
F 3 "~" H 3800 2650 50  0001 C CNN
	1    3800 2650
	1    0    0    -1  
$EndComp
Wire Wire Line
	3900 2650 4150 2650
Wire Wire Line
	3400 2650 3700 2650
Wire Wire Line
	3800 2750 3800 2800
Wire Wire Line
	3800 2550 3800 2500
Wire Wire Line
	3800 2500 3950 2500
Wire Wire Line
	3950 2500 3950 2800
Wire Wire Line
	3950 2800 3800 2800
Connection ~ 3800 2800
Wire Wire Line
	3800 2800 3800 3050
$Comp
L keyboard-rescue:HRO-TYPE-C-31-M-12-Type-C USB1
U 1 1 615CC77B
P 1700 4150
F 0 "USB1" H 1533 4947 60  0000 C CNN
F 1 "HRO-TYPE-C-31-M-12" H 1533 4841 60  0000 C CNN
F 2 "Type-C:HRO-TYPE-C-31-M-12-HandSoldering" H 1700 4150 60  0001 C CNN
F 3 "" H 1700 4150 60  0001 C CNN
	1    1700 4150
	1    0    0    -1  
$EndComp
Wire Wire Line
	1800 3600 2000 3600
Wire Wire Line
	2000 3600 2000 4700
Text GLabel 4350 4300 2    50   Input ~ 0
D+
Text GLabel 4350 4200 2    50   Input ~ 0
D-
$Comp
L Device:R R3
U 1 1 61631429
P 3950 4300
F 0 "R3" V 4050 4300 50  0000 C CNN
F 1 "22" V 4150 4300 50  0000 C CNN
F 2 "Resistor_SMD:R_0805_2012Metric_Pad1.20x1.40mm_HandSolder" V 3880 4300 50  0001 C CNN
F 3 "~" H 3950 4300 50  0001 C CNN
	1    3950 4300
	0    1    1    0   
$EndComp
$Comp
L Device:R R4
U 1 1 616321D5
P 3950 4200
F 0 "R4" V 3743 4200 50  0000 C CNN
F 1 "22" V 3834 4200 50  0000 C CNN
F 2 "Resistor_SMD:R_0805_2012Metric_Pad1.20x1.40mm_HandSolder" V 3880 4200 50  0001 C CNN
F 3 "~" H 3950 4200 50  0001 C CNN
	1    3950 4200
	0    1    1    0   
$EndComp
Wire Wire Line
	1800 4200 2200 4200
Wire Wire Line
	1800 4300 2100 4300
Wire Wire Line
	1800 4000 2200 4000
Wire Wire Line
	2200 4000 2200 4200
Connection ~ 2200 4200
Wire Wire Line
	1800 4100 2100 4100
Wire Wire Line
	2100 4100 2100 4300
Connection ~ 2100 4300
$Comp
L power:+5V #PWR0101
U 1 1 6167D7BF
P 1900 2200
F 0 "#PWR0101" H 1900 2050 50  0001 C CNN
F 1 "+5V" H 1915 2373 50  0000 C CNN
F 2 "" H 1900 2200 50  0001 C CNN
F 3 "" H 1900 2200 50  0001 C CNN
	1    1900 2200
	1    0    0    -1  
$EndComp
$Comp
L power:+5V #PWR0102
U 1 1 616A4D19
P 9200 2250
F 0 "#PWR0102" H 9200 2100 50  0001 C CNN
F 1 "+5V" H 9215 2423 50  0000 C CNN
F 2 "" H 9200 2250 50  0001 C CNN
F 3 "" H 9200 2250 50  0001 C CNN
	1    9200 2250
	1    0    0    -1  
$EndComp
$Comp
L power:+5V #PWR0104
U 1 1 616A51C1
P 6100 2900
F 0 "#PWR0104" H 6100 2750 50  0001 C CNN
F 1 "+5V" V 6115 3028 50  0000 L CNN
F 2 "" H 6100 2900 50  0001 C CNN
F 3 "" H 6100 2900 50  0001 C CNN
	1    6100 2900
	0    -1   -1   0   
$EndComp
$Comp
L power:+5V #PWR0105
U 1 1 616AE504
P 6600 1700
F 0 "#PWR0105" H 6600 1550 50  0001 C CNN
F 1 "+5V" H 6500 1800 50  0000 C CNN
F 2 "" H 6600 1700 50  0001 C CNN
F 3 "" H 6600 1700 50  0001 C CNN
	1    6600 1700
	1    0    0    -1  
$EndComp
$Comp
L MCU_Microchip_ATmega:ATmega32U4-AU U1
U 1 1 616B7D59
P 6700 3600
F 0 "U1" H 6700 1711 50  0000 C CNN
F 1 "ATmega32U4-AU" H 6700 1620 50  0000 C CNN
F 2 "Package_QFP:TQFP-44_10x10mm_P0.8mm" H 6700 3600 50  0001 C CIN
F 3 "http://ww1.microchip.com/downloads/en/DeviceDoc/Atmel-7766-8-bit-AVR-ATmega16U4-32U4_Datasheet.pdf" H 6700 3600 50  0001 C CNN
	1    6700 3600
	1    0    0    -1  
$EndComp
Wire Wire Line
	7300 2200 7850 2200
Wire Wire Line
	7300 2300 7850 2300
Wire Wire Line
	7300 2400 7850 2400
Wire Wire Line
	6100 2100 5750 2100
NoConn ~ 6100 2700
Text GLabel 6100 3100 0    50   Input ~ 0
D+
Text GLabel 6100 3200 0    50   Input ~ 0
D-
Wire Wire Line
	7300 4200 8050 4200
Wire Wire Line
	8050 4200 8050 4300
Wire Wire Line
	8050 4600 8050 4750
Wire Wire Line
	6700 5400 6600 5400
Wire Wire Line
	6600 5400 6300 5400
Wire Wire Line
	6300 5400 6300 5500
Connection ~ 6600 5400
Text GLabel 5200 2400 2    50   Input ~ 0
XTAL1
Text GLabel 5200 2500 2    50   Input ~ 0
XTAL2
Text GLabel 6100 2300 0    50   Input ~ 0
XTAL1
Text GLabel 6100 2500 0    50   Input ~ 0
XTAL2
$Comp
L Device:C_Small C8
U 1 1 617717D3
P 5600 3600
F 0 "C8" H 5692 3646 50  0000 L CNN
F 1 "1u" H 5692 3555 50  0000 L CNN
F 2 "Capacitor_SMD:C_0805_2012Metric_Pad1.18x1.45mm_HandSolder" H 5600 3600 50  0001 C CNN
F 3 "~" H 5600 3600 50  0001 C CNN
	1    5600 3600
	1    0    0    -1  
$EndComp
Wire Wire Line
	5600 3500 5600 3400
Wire Wire Line
	5600 3400 6100 3400
Wire Wire Line
	5600 3700 5600 3850
Wire Wire Line
	6800 1800 6700 1800
Wire Wire Line
	6700 1800 6600 1800
Connection ~ 6700 1800
Wire Wire Line
	6600 1800 6600 1700
Connection ~ 6600 1800
$Comp
L power:VCC #PWR0107
U 1 1 617CD45A
P 2450 3700
F 0 "#PWR0107" H 2450 3550 50  0001 C CNN
F 1 "VCC" H 2465 3873 50  0000 C CNN
F 2 "" H 2450 3700 50  0001 C CNN
F 3 "" H 2450 3700 50  0001 C CNN
	1    2450 3700
	1    0    0    -1  
$EndComp
$Comp
L Device:Polyfuse_Small F1
U 1 1 617CDE3E
P 2850 3700
F 0 "F1" V 2645 3700 50  0000 C CNN
F 1 "500m" V 2736 3700 50  0000 C CNN
F 2 "Fuse:Fuse_1206_3216Metric_Pad1.42x1.75mm_HandSolder" H 2900 3500 50  0001 L CNN
F 3 "~" H 2850 3700 50  0001 C CNN
	1    2850 3700
	0    1    1    0   
$EndComp
$Comp
L power:+5V #PWR0108
U 1 1 617CF231
P 3300 3700
F 0 "#PWR0108" H 3300 3550 50  0001 C CNN
F 1 "+5V" V 3315 3828 50  0000 L CNN
F 2 "" H 3300 3700 50  0001 C CNN
F 3 "" H 3300 3700 50  0001 C CNN
	1    3300 3700
	0    1    1    0   
$EndComp
Wire Wire Line
	2450 3700 2750 3700
Connection ~ 2450 3700
Wire Wire Line
	2950 3700 3200 3700
Wire Wire Line
	2250 3700 2250 4600
Wire Wire Line
	2250 4600 1800 4600
Wire Wire Line
	1800 3700 2250 3700
Connection ~ 2250 3700
Wire Wire Line
	2250 3700 2350 3700
Wire Wire Line
	1800 4700 2000 4700
Connection ~ 2000 4700
$Comp
L Device:R_Small R6
U 1 1 61801ECD
P 2800 4600
F 0 "R6" H 2859 4646 50  0000 L CNN
F 1 "5.1k" H 2859 4555 50  0000 L CNN
F 2 "Resistor_SMD:R_0805_2012Metric_Pad1.20x1.40mm_HandSolder" H 2800 4600 50  0001 C CNN
F 3 "~" H 2800 4600 50  0001 C CNN
	1    2800 4600
	1    0    0    -1  
$EndComp
NoConn ~ 1800 3800
NoConn ~ 1800 4400
$Comp
L power:GND #PWR0109
U 1 1 6183F936
P 2400 4950
F 0 "#PWR0109" H 2400 4700 50  0001 C CNN
F 1 "GND" H 2405 4777 50  0000 C CNN
F 2 "" H 2400 4950 50  0001 C CNN
F 3 "" H 2400 4950 50  0001 C CNN
	1    2400 4950
	1    0    0    -1  
$EndComp
Wire Wire Line
	2400 4950 2400 4900
Wire Wire Line
	2400 4700 2000 4700
Wire Wire Line
	4100 4200 4350 4200
Wire Wire Line
	4100 4300 4350 4300
Wire Wire Line
	2100 4300 3750 4300
$Comp
L Device:R_Small R5
U 1 1 618009DB
P 2550 4600
F 0 "R5" H 2609 4646 50  0000 L CNN
F 1 "5.1k" H 2609 4555 50  0000 L CNN
F 2 "Resistor_SMD:R_0805_2012Metric_Pad1.20x1.40mm_HandSolder" H 2550 4600 50  0001 C CNN
F 3 "~" H 2550 4600 50  0001 C CNN
	1    2550 4600
	1    0    0    -1  
$EndComp
Wire Wire Line
	1800 3900 2800 3900
Wire Wire Line
	2800 3900 2800 4500
Wire Wire Line
	2800 4700 2550 4700
Connection ~ 2400 4700
Connection ~ 2550 4700
Wire Wire Line
	2550 4700 2400 4700
Wire Wire Line
	2550 4500 1800 4500
$Comp
L keyboard-rescue:PRTR5V0U2X-random-keyboard-parts U2
U 1 1 6189CE97
P 3450 4550
F 0 "U2" H 3450 4263 60  0000 C CNN
F 1 "PRTR5V0U2X" H 3450 4369 60  0000 C CNN
F 2 "random-keyboard-parts:SOT143B" H 3450 4550 60  0001 C CNN
F 3 "" H 3450 4550 60  0001 C CNN
	1    3450 4550
	-1   0    0    1   
$EndComp
Wire Wire Line
	2200 4200 3000 4200
Wire Wire Line
	3150 4500 3000 4500
Wire Wire Line
	3000 4500 3000 4200
Connection ~ 3000 4200
Wire Wire Line
	3000 4200 3800 4200
Wire Wire Line
	3750 4500 3750 4300
Connection ~ 3750 4300
Wire Wire Line
	3750 4300 3800 4300
Wire Wire Line
	3750 4600 3750 4900
Wire Wire Line
	3750 4900 2400 4900
Connection ~ 2400 4900
Wire Wire Line
	2400 4900 2400 4700
$Comp
L power:VCC #PWR0111
U 1 1 618E01ED
P 3150 4600
F 0 "#PWR0111" H 3150 4450 50  0001 C CNN
F 1 "VCC" V 3050 4550 50  0000 L CNN
F 2 "" H 3150 4600 50  0001 C CNN
F 3 "" H 3150 4600 50  0001 C CNN
	1    3150 4600
	0    -1   -1   0   
$EndComp
$Comp
L keyboard_parts:SW_PUSH SW1
U 1 1 618E1626
P 4750 4850
F 0 "SW1" H 4750 5105 50  0000 C CNN
F 1 "SW_PUSH" H 4750 5014 50  0000 C CNN
F 2 "Button_Switch_SMD:SW_SPST_SKQG_WithStem" H 4750 4850 60  0001 C CNN
F 3 "" H 4750 4850 60  0000 C CNN
	1    4750 4850
	1    0    0    -1  
$EndComp
$Comp
L power:+5V #PWR0113
U 1 1 618E23AA
P 5400 4300
F 0 "#PWR0113" H 5400 4150 50  0001 C CNN
F 1 "+5V" H 5415 4473 50  0000 C CNN
F 2 "" H 5400 4300 50  0001 C CNN
F 3 "" H 5400 4300 50  0001 C CNN
	1    5400 4300
	1    0    0    -1  
$EndComp
$Comp
L Device:R_Small R1
U 1 1 618E33D3
P 5400 4500
F 0 "R1" H 5459 4546 50  0000 L CNN
F 1 "10k" H 5459 4455 50  0000 L CNN
F 2 "Resistor_SMD:R_0805_2012Metric_Pad1.20x1.40mm_HandSolder" H 5400 4500 50  0001 C CNN
F 3 "~" H 5400 4500 50  0001 C CNN
	1    5400 4500
	1    0    0    -1  
$EndComp
Wire Wire Line
	5400 4300 5400 4400
Wire Wire Line
	5400 4600 5400 4850
Wire Wire Line
	5400 4850 5050 4850
Wire Wire Line
	4450 4850 4400 4850
Wire Wire Line
	4400 4850 4400 5050
Text GLabel 5650 4850 2    50   Input ~ 0
RESET
Wire Wire Line
	5400 4850 5650 4850
Connection ~ 5400 4850
$Sheet
S 9000 5200 500  150 
U 61928693
F0 "matrix" 50
F1 "matrix.sch" 50
$EndSheet
Text GLabel 7300 4900 2    50   Input ~ 0
col0
Text GLabel 7300 4500 2    50   Input ~ 0
col1
Text GLabel 7300 2500 2    50   Input ~ 0
col2
Text GLabel 7300 2600 2    50   Input ~ 0
col3
Text GLabel 7300 2700 2    50   Input ~ 0
col4
Text GLabel 7300 3500 2    50   Input ~ 0
col8
Text GLabel 7300 3400 2    50   Input ~ 0
col9
Text GLabel 7300 3300 2    50   Input ~ 0
col10
Text GLabel 7300 4800 2    50   Input ~ 0
row0
Text GLabel 7300 4600 2    50   Input ~ 0
row2
Text GLabel 7300 3800 2    50   Input ~ 0
row3
Text GLabel 7300 3000 2    50   Input ~ 0
col5
Text GLabel 7300 3100 2    50   Input ~ 0
col6
Text GLabel 7300 4700 2    50   Input ~ 0
row1
NoConn ~ 7300 5000
NoConn ~ 7300 2100
NoConn ~ 7300 2800
Text GLabel 7300 3600 2    50   Input ~ 0
col7
NoConn ~ 7300 3700
NoConn ~ 7300 4300
NoConn ~ 7300 3900
NoConn ~ 7300 4000
$Comp
L power:PWR_FLAG #FLG0101
U 1 1 61B702F8
P 3200 3700
F 0 "#FLG0101" H 3200 3775 50  0001 C CNN
F 1 "PWR_FLAG" H 3200 3873 50  0000 C CNN
F 2 "" H 3200 3700 50  0001 C CNN
F 3 "~" H 3200 3700 50  0001 C CNN
	1    3200 3700
	1    0    0    -1  
$EndComp
Connection ~ 3200 3700
Wire Wire Line
	3200 3700 3300 3700
$Comp
L power:PWR_FLAG #FLG0103
U 1 1 61B741D2
P 2350 3700
F 0 "#FLG0103" H 2350 3775 50  0001 C CNN
F 1 "PWR_FLAG" H 2150 3800 50  0000 C CNN
F 2 "" H 2350 3700 50  0001 C CNN
F 3 "~" H 2350 3700 50  0001 C CNN
	1    2350 3700
	1    0    0    -1  
$EndComp
Connection ~ 2350 3700
Wire Wire Line
	2350 3700 2450 3700
$Comp
L Mechanical:MountingHole H1
U 1 1 61B74BDB
P 9650 1000
F 0 "H1" H 9750 1046 50  0000 L CNN
F 1 "MountingHole" H 9750 955 50  0000 L CNN
F 2 "MountingHole:MountingHole_3.2mm_M3" H 9650 1000 50  0001 C CNN
F 3 "~" H 9650 1000 50  0001 C CNN
	1    9650 1000
	1    0    0    -1  
$EndComp
$Comp
L Mechanical:MountingHole H2
U 1 1 61B76113
P 9700 1350
F 0 "H2" H 9800 1396 50  0000 L CNN
F 1 "MountingHole" H 9800 1305 50  0000 L CNN
F 2 "MountingHole:MountingHole_3.2mm_M3" H 9700 1350 50  0001 C CNN
F 3 "~" H 9700 1350 50  0001 C CNN
	1    9700 1350
	1    0    0    -1  
$EndComp
$Comp
L Mechanical:MountingHole H3
U 1 1 61B770DA
P 9700 1750
F 0 "H3" H 9800 1796 50  0000 L CNN
F 1 "MountingHole" H 9800 1705 50  0000 L CNN
F 2 "MountingHole:MountingHole_3.2mm_M3" H 9700 1750 50  0001 C CNN
F 3 "~" H 9700 1750 50  0001 C CNN
	1    9700 1750
	1    0    0    -1  
$EndComp
$Comp
L Mechanical:MountingHole H4
U 1 1 61B78072
P 9700 2050
F 0 "H4" H 9800 2096 50  0000 L CNN
F 1 "MountingHole" H 9800 2005 50  0000 L CNN
F 2 "MountingHole:MountingHole_3.2mm_M3" H 9700 2050 50  0001 C CNN
F 3 "~" H 9700 2050 50  0001 C CNN
	1    9700 2050
	1    0    0    -1  
$EndComp
$Comp
L power:GND #PWR0115
U 1 1 61B7B7C7
P 3800 3200
F 0 "#PWR0115" H 3800 2950 50  0001 C CNN
F 1 "GND" H 3805 3027 50  0000 C CNN
F 2 "" H 3800 3200 50  0001 C CNN
F 3 "" H 3800 3200 50  0001 C CNN
	1    3800 3200
	1    0    0    -1  
$EndComp
Text GLabel 2550 4200 1    50   Input ~ 0
DN
Text GLabel 2550 4300 3    50   Input ~ 0
DP
Wire Wire Line
	9200 2250 9200 2800
Wire Wire Line
	2500 2350 2850 2350
Wire Wire Line
	2500 2800 2850 2800
$Comp
L Device:Ferrite_Bead_Small FB1
U 1 1 615CD619
P 1800 5450
F 0 "FB1" V 2037 5450 50  0000 C CNN
F 1 "Ferrite_Bead_Small" V 1946 5450 50  0000 C CNN
F 2 "Inductor_SMD:L_0805_2012Metric_Pad1.15x1.40mm_HandSolder" V 1730 5450 50  0001 C CNN
F 3 "~" H 1800 5450 50  0001 C CNN
	1    1800 5450
	0    -1   -1   0   
$EndComp
$Comp
L power:PWR_FLAG #FLG0104
U 1 1 615CE8EC
P 1450 5450
F 0 "#FLG0104" H 1450 5525 50  0001 C CNN
F 1 "PWR_FLAG" V 1450 5577 50  0000 L CNN
F 2 "" H 1450 5450 50  0001 C CNN
F 3 "~" H 1450 5450 50  0001 C CNN
	1    1450 5450
	0    -1   -1   0   
$EndComp
$Comp
L power:PWR_FLAG #FLG0105
U 1 1 615CF159
P 2150 5450
F 0 "#FLG0105" H 2150 5525 50  0001 C CNN
F 1 "PWR_FLAG" V 2150 5578 50  0000 L CNN
F 2 "" H 2150 5450 50  0001 C CNN
F 3 "~" H 2150 5450 50  0001 C CNN
	1    2150 5450
	0    1    1    0   
$EndComp
$Comp
L power:Earth #PWR0116
U 1 1 615CF805
P 1500 5600
F 0 "#PWR0116" H 1500 5350 50  0001 C CNN
F 1 "Earth" H 1500 5450 50  0001 C CNN
F 2 "" H 1500 5600 50  0001 C CNN
F 3 "~" H 1500 5600 50  0001 C CNN
	1    1500 5600
	1    0    0    -1  
$EndComp
$Comp
L power:GND #PWR0117
U 1 1 615D0DF9
P 2100 5600
F 0 "#PWR0117" H 2100 5350 50  0001 C CNN
F 1 "GND" H 2105 5427 50  0000 C CNN
F 2 "" H 2100 5600 50  0001 C CNN
F 3 "" H 2100 5600 50  0001 C CNN
	1    2100 5600
	1    0    0    -1  
$EndComp
Wire Wire Line
	1450 5450 1500 5450
Wire Wire Line
	1900 5450 2100 5450
Wire Wire Line
	2100 5450 2100 5600
Connection ~ 2100 5450
Wire Wire Line
	2100 5450 2150 5450
Wire Wire Line
	1500 5450 1500 5600
Connection ~ 1500 5450
Wire Wire Line
	1500 5450 1700 5450
$Comp
L power:Earth #PWR?
U 1 1 615E59C4
P 1900 4950
F 0 "#PWR?" H 1900 4700 50  0001 C CNN
F 1 "Earth" H 1900 4800 50  0001 C CNN
F 2 "" H 1900 4950 50  0001 C CNN
F 3 "~" H 1900 4950 50  0001 C CNN
	1    1900 4950
	1    0    0    -1  
$EndComp
Wire Wire Line
	1800 4800 1900 4800
Wire Wire Line
	1900 4800 1900 4950
$Comp
L Device:C_Small C6
U 1 1 615D16DC
P 2850 2600
F 0 "C6" H 2942 2646 50  0000 L CNN
F 1 "0.1u" H 2942 2555 50  0000 L CNN
F 2 "Capacitor_SMD:C_0805_2012Metric_Pad1.18x1.45mm_HandSolder" H 2850 2600 50  0001 C CNN
F 3 "~" H 2850 2600 50  0001 C CNN
	1    2850 2600
	1    0    0    -1  
$EndComp
Wire Wire Line
	2850 2500 2850 2350
Connection ~ 2850 2350
Wire Wire Line
	2850 2350 3100 2350
Wire Wire Line
	2850 2700 2850 2800
Connection ~ 2850 2800
Wire Wire Line
	2850 2800 3100 2800
$EndSCHEMATC
