EESchema Schematic File Version 4
EELAYER 30 0
EELAYER END
$Descr A4 11693 8268
encoding utf-8
Sheet 2 2
Title ""
Date ""
Rev ""
Comp ""
Comment1 ""
Comment2 ""
Comment3 ""
Comment4 ""
$EndDescr
$Comp
L keyboard_parts:KEYSW K2
U 1 1 6197EBCB
P 3150 1550
F 0 "K2" H 3150 1783 60  0000 C CNN
F 1 "KEYSW" H 3150 1450 60  0001 C CNN
F 2 "Alps_Only:ALPS-1U" H 3150 1550 60  0001 C CNN
F 3 "" H 3150 1550 60  0000 C CNN
	1    3150 1550
	1    0    0    -1  
$EndComp
$Comp
L Device:D D2
U 1 1 6197EBD1
P 2700 1800
F 0 "D2" V 2746 1720 50  0000 R CNN
F 1 "D" V 2655 1720 50  0000 R CNN
F 2 "Diode_SMD:D_SOD-123" H 2700 1800 50  0001 C CNN
F 3 "~" H 2700 1800 50  0001 C CNN
	1    2700 1800
	0    -1   -1   0   
$EndComp
$Comp
L keyboard_parts:KEYSW K3
U 1 1 6197EBD7
P 4100 1550
F 0 "K3" H 4100 1783 60  0000 C CNN
F 1 "KEYSW" H 4100 1450 60  0001 C CNN
F 2 "Alps_Only:ALPS-1U" H 4100 1550 60  0001 C CNN
F 3 "" H 4100 1550 60  0000 C CNN
	1    4100 1550
	1    0    0    -1  
$EndComp
$Comp
L Device:D D3
U 1 1 6197EBDD
P 3650 1800
F 0 "D3" V 3696 1720 50  0000 R CNN
F 1 "D" V 3605 1720 50  0000 R CNN
F 2 "Diode_SMD:D_SOD-123" H 3650 1800 50  0001 C CNN
F 3 "~" H 3650 1800 50  0001 C CNN
	1    3650 1800
	0    -1   -1   0   
$EndComp
$Comp
L keyboard_parts:KEYSW K4
U 1 1 6197EBE3
P 5000 1600
F 0 "K4" H 5000 1833 60  0000 C CNN
F 1 "KEYSW" H 5000 1500 60  0001 C CNN
F 2 "Alps_Only:ALPS-1U" H 5000 1600 60  0001 C CNN
F 3 "" H 5000 1600 60  0000 C CNN
	1    5000 1600
	1    0    0    -1  
$EndComp
$Comp
L Device:D D4
U 1 1 6197EBE9
P 4550 1850
F 0 "D4" V 4596 1770 50  0000 R CNN
F 1 "D" V 4505 1770 50  0000 R CNN
F 2 "Diode_SMD:D_SOD-123" H 4550 1850 50  0001 C CNN
F 3 "~" H 4550 1850 50  0001 C CNN
	1    4550 1850
	0    -1   -1   0   
$EndComp
$Comp
L keyboard_parts:KEYSW K5
U 1 1 6197EBEF
P 5950 1550
F 0 "K5" H 5950 1783 60  0000 C CNN
F 1 "KEYSW" H 5950 1450 60  0001 C CNN
F 2 "Alps_Only:ALPS-1U" H 5950 1550 60  0001 C CNN
F 3 "" H 5950 1550 60  0000 C CNN
	1    5950 1550
	1    0    0    -1  
$EndComp
$Comp
L Device:D D5
U 1 1 6197EBF5
P 5500 1800
F 0 "D5" V 5546 1720 50  0000 R CNN
F 1 "D" V 5455 1720 50  0000 R CNN
F 2 "Diode_SMD:D_SOD-123" H 5500 1800 50  0001 C CNN
F 3 "~" H 5500 1800 50  0001 C CNN
	1    5500 1800
	0    -1   -1   0   
$EndComp
$Comp
L keyboard_parts:KEYSW K6
U 1 1 6197EBFB
P 6800 1550
F 0 "K6" H 6800 1783 60  0000 C CNN
F 1 "KEYSW" H 6800 1450 60  0001 C CNN
F 2 "Alps_Only:ALPS-1U" H 6800 1550 60  0001 C CNN
F 3 "" H 6800 1550 60  0000 C CNN
	1    6800 1550
	1    0    0    -1  
$EndComp
$Comp
L Device:D D6
U 1 1 6197EC01
P 6350 1800
F 0 "D6" V 6396 1720 50  0000 R CNN
F 1 "D" V 6305 1720 50  0000 R CNN
F 2 "Diode_SMD:D_SOD-123" H 6350 1800 50  0001 C CNN
F 3 "~" H 6350 1800 50  0001 C CNN
	1    6350 1800
	0    -1   -1   0   
$EndComp
$Comp
L keyboard_parts:KEYSW K7
U 1 1 6197EC07
P 7700 1550
F 0 "K7" H 7700 1783 60  0000 C CNN
F 1 "KEYSW" H 7700 1450 60  0001 C CNN
F 2 "Alps_Only:ALPS-1U" H 7700 1550 60  0001 C CNN
F 3 "" H 7700 1550 60  0000 C CNN
	1    7700 1550
	1    0    0    -1  
$EndComp
$Comp
L keyboard_parts:KEYSW K8
U 1 1 6197EC0D
P 8650 1600
F 0 "K8" H 8650 1833 60  0000 C CNN
F 1 "KEYSW" H 8650 1500 60  0001 C CNN
F 2 "Alps_Only:ALPS-1U" H 8650 1600 60  0001 C CNN
F 3 "" H 8650 1600 60  0000 C CNN
	1    8650 1600
	1    0    0    -1  
$EndComp
$Comp
L Device:D D8
U 1 1 6197EC13
P 8200 1850
F 0 "D8" V 8246 1770 50  0000 R CNN
F 1 "D" V 8155 1770 50  0000 R CNN
F 2 "Diode_SMD:D_SOD-123" H 8200 1850 50  0001 C CNN
F 3 "~" H 8200 1850 50  0001 C CNN
	1    8200 1850
	0    -1   -1   0   
$EndComp
$Comp
L keyboard_parts:KEYSW K9
U 1 1 6197EC19
P 9650 1600
F 0 "K9" H 9650 1833 60  0000 C CNN
F 1 "KEYSW" H 9650 1500 60  0001 C CNN
F 2 "Alps_Only:ALPS-1U" H 9650 1600 60  0001 C CNN
F 3 "" H 9650 1600 60  0000 C CNN
	1    9650 1600
	1    0    0    -1  
$EndComp
$Comp
L Device:D D9
U 1 1 6197EC1F
P 9200 1850
F 0 "D9" V 9246 1770 50  0000 R CNN
F 1 "D" V 9155 1770 50  0000 R CNN
F 2 "Diode_SMD:D_SOD-123" H 9200 1850 50  0001 C CNN
F 3 "~" H 9200 1850 50  0001 C CNN
	1    9200 1850
	0    -1   -1   0   
$EndComp
$Comp
L keyboard_parts:KEYSW K10
U 1 1 6197EC25
P 10700 1600
F 0 "K10" H 10700 1833 60  0000 C CNN
F 1 "KEYSW" H 10700 1500 60  0001 C CNN
F 2 "Alps_Only:ALPS-1U" H 10700 1600 60  0001 C CNN
F 3 "" H 10700 1600 60  0000 C CNN
	1    10700 1600
	1    0    0    -1  
$EndComp
$Comp
L Device:D D10
U 1 1 6197EC2B
P 10250 1850
F 0 "D10" V 10296 1770 50  0000 R CNN
F 1 "D" V 10205 1770 50  0000 R CNN
F 2 "Diode_SMD:D_SOD-123" H 10250 1850 50  0001 C CNN
F 3 "~" H 10250 1850 50  0001 C CNN
	1    10250 1850
	0    -1   -1   0   
$EndComp
$Comp
L keyboard_parts:KEYSW K1
U 1 1 6197EC31
P 2200 1550
F 0 "K1" H 2200 1783 60  0000 C CNN
F 1 "KEYSW" H 2200 1450 60  0001 C CNN
F 2 "Alps_Only:ALPS-1U" H 2200 1550 60  0001 C CNN
F 3 "" H 2200 1550 60  0000 C CNN
	1    2200 1550
	1    0    0    -1  
$EndComp
$Comp
L Device:D D1
U 1 1 6197EC37
P 1750 1800
F 0 "D1" V 1796 1720 50  0000 R CNN
F 1 "D" V 1705 1720 50  0000 R CNN
F 2 "Diode_SMD:D_SOD-123" H 1750 1800 50  0001 C CNN
F 3 "~" H 1750 1800 50  0001 C CNN
	1    1750 1800
	0    -1   -1   0   
$EndComp
$Comp
L keyboard_parts:KEYSW K0
U 1 1 6197EC3D
P 1300 1550
F 0 "K0" H 1300 1783 60  0000 C CNN
F 1 "KEYSW" H 1300 1450 60  0001 C CNN
F 2 "Alps_Only:ALPS-1U" H 1300 1550 60  0001 C CNN
F 3 "" H 1300 1550 60  0000 C CNN
	1    1300 1550
	1    0    0    -1  
$EndComp
$Comp
L Device:D D0
U 1 1 6197EC43
P 850 1800
F 0 "D0" V 896 1720 50  0000 R CNN
F 1 "D" V 805 1720 50  0000 R CNN
F 2 "Diode_SMD:D_SOD-123" H 850 1800 50  0001 C CNN
F 3 "~" H 850 1800 50  0001 C CNN
	1    850  1800
	0    -1   -1   0   
$EndComp
Wire Wire Line
	10400 1600 10250 1600
Wire Wire Line
	10250 1600 10250 1700
Wire Wire Line
	9350 1600 9200 1600
Wire Wire Line
	9200 1600 9200 1700
Wire Wire Line
	8350 1600 8200 1600
Wire Wire Line
	8200 1600 8200 1700
Wire Wire Line
	7400 1550 7250 1550
Wire Wire Line
	7250 1550 7250 1650
Wire Wire Line
	6500 1550 6350 1550
Wire Wire Line
	6350 1550 6350 1650
Wire Wire Line
	5650 1550 5500 1550
Wire Wire Line
	5500 1550 5500 1650
Wire Wire Line
	4700 1600 4550 1600
Wire Wire Line
	4550 1600 4550 1700
Wire Wire Line
	3800 1550 3650 1550
Wire Wire Line
	3650 1550 3650 1650
Wire Wire Line
	2850 1550 2700 1550
Wire Wire Line
	2700 1550 2700 1650
Wire Wire Line
	1900 1550 1750 1550
Wire Wire Line
	1750 1550 1750 1650
Wire Wire Line
	1000 1550 850  1550
Wire Wire Line
	850  1550 850  1650
Wire Wire Line
	850  1950 850  2150
Wire Wire Line
	850  2150 1750 2150
Wire Wire Line
	10250 2150 10250 2000
Wire Wire Line
	1750 1950 1750 2150
Connection ~ 1750 2150
Wire Wire Line
	1750 2150 2700 2150
Wire Wire Line
	2700 1950 2700 2150
Connection ~ 2700 2150
Wire Wire Line
	2700 2150 3650 2150
Wire Wire Line
	3650 1950 3650 2150
Connection ~ 3650 2150
Wire Wire Line
	3650 2150 4550 2150
Wire Wire Line
	4550 2000 4550 2150
Connection ~ 4550 2150
Wire Wire Line
	4550 2150 5500 2150
Wire Wire Line
	5500 1950 5500 2150
Connection ~ 5500 2150
Wire Wire Line
	5500 2150 6350 2150
Wire Wire Line
	6350 1950 6350 2150
Wire Wire Line
	8200 2000 8200 2150
Wire Wire Line
	8200 2150 9200 2150
Wire Wire Line
	9200 2000 9200 2150
Connection ~ 9200 2150
Wire Wire Line
	9200 2150 10250 2150
Wire Wire Line
	1600 1550 1600 1350
Connection ~ 8200 2150
Connection ~ 6350 2150
Wire Wire Line
	7250 2150 8200 2150
Connection ~ 7250 2150
Wire Wire Line
	7250 1950 7250 2150
Wire Wire Line
	6350 2150 7250 2150
$Comp
L Device:D D7
U 1 1 6197ED47
P 7250 1800
F 0 "D7" V 7296 1720 50  0000 R CNN
F 1 "D" V 7205 1720 50  0000 R CNN
F 2 "Diode_SMD:D_SOD-123" H 7250 1800 50  0001 C CNN
F 3 "~" H 7250 1800 50  0001 C CNN
	1    7250 1800
	0    -1   -1   0   
$EndComp
Wire Wire Line
	2500 1550 2500 1300
Wire Wire Line
	3450 1550 3450 1300
Wire Wire Line
	4400 1550 4400 1300
Wire Wire Line
	5300 1600 5300 1300
Wire Wire Line
	6250 1550 6250 1300
Wire Wire Line
	7100 1550 7100 1300
Wire Wire Line
	8000 1550 8000 1300
Wire Wire Line
	8950 1600 8950 1300
Wire Wire Line
	9950 1600 9950 1300
Wire Wire Line
	11000 1600 11000 1300
Connection ~ 1600 1550
Connection ~ 2500 1550
Connection ~ 3450 1550
Connection ~ 4400 1550
Connection ~ 5300 1600
Connection ~ 6250 1550
Connection ~ 7100 1550
Connection ~ 8000 1550
Connection ~ 8950 1600
Connection ~ 850  2150
Wire Wire Line
	850  2150 700  2150
Connection ~ 9950 1600
Connection ~ 11000 1600
$Comp
L keyboard_parts:KEYSW K13
U 1 1 61A2B784
P 3150 2550
F 0 "K13" H 3150 2783 60  0000 C CNN
F 1 "KEYSW" H 3150 2450 60  0001 C CNN
F 2 "Alps_Only:ALPS-1U" H 3150 2550 60  0001 C CNN
F 3 "" H 3150 2550 60  0000 C CNN
	1    3150 2550
	1    0    0    -1  
$EndComp
$Comp
L Device:D D13
U 1 1 61A2B78A
P 2700 2800
F 0 "D13" V 2746 2720 50  0000 R CNN
F 1 "D" V 2655 2720 50  0000 R CNN
F 2 "Diode_SMD:D_SOD-123" H 2700 2800 50  0001 C CNN
F 3 "~" H 2700 2800 50  0001 C CNN
	1    2700 2800
	0    -1   -1   0   
$EndComp
$Comp
L keyboard_parts:KEYSW K14
U 1 1 61A2B790
P 4100 2550
F 0 "K14" H 4100 2783 60  0000 C CNN
F 1 "KEYSW" H 4100 2450 60  0001 C CNN
F 2 "Alps_Only:ALPS-1U" H 4100 2550 60  0001 C CNN
F 3 "" H 4100 2550 60  0000 C CNN
	1    4100 2550
	1    0    0    -1  
$EndComp
$Comp
L Device:D D14
U 1 1 61A2B796
P 3650 2800
F 0 "D14" V 3696 2720 50  0000 R CNN
F 1 "D" V 3605 2720 50  0000 R CNN
F 2 "Diode_SMD:D_SOD-123" H 3650 2800 50  0001 C CNN
F 3 "~" H 3650 2800 50  0001 C CNN
	1    3650 2800
	0    -1   -1   0   
$EndComp
$Comp
L keyboard_parts:KEYSW K15
U 1 1 61A2B79C
P 5000 2600
F 0 "K15" H 5000 2833 60  0000 C CNN
F 1 "KEYSW" H 5000 2500 60  0001 C CNN
F 2 "Alps_Only:ALPS-1U" H 5000 2600 60  0001 C CNN
F 3 "" H 5000 2600 60  0000 C CNN
	1    5000 2600
	1    0    0    -1  
$EndComp
$Comp
L Device:D D15
U 1 1 61A2B7A2
P 4550 2850
F 0 "D15" V 4596 2770 50  0000 R CNN
F 1 "D" V 4505 2770 50  0000 R CNN
F 2 "Diode_SMD:D_SOD-123" H 4550 2850 50  0001 C CNN
F 3 "~" H 4550 2850 50  0001 C CNN
	1    4550 2850
	0    -1   -1   0   
$EndComp
$Comp
L keyboard_parts:KEYSW K16
U 1 1 61A2B7A8
P 5950 2550
F 0 "K16" H 5950 2783 60  0000 C CNN
F 1 "KEYSW" H 5950 2450 60  0001 C CNN
F 2 "Alps_Only:ALPS-1U" H 5950 2550 60  0001 C CNN
F 3 "" H 5950 2550 60  0000 C CNN
	1    5950 2550
	1    0    0    -1  
$EndComp
$Comp
L Device:D D16
U 1 1 61A2B7AE
P 5500 2800
F 0 "D16" V 5546 2720 50  0000 R CNN
F 1 "D" V 5455 2720 50  0000 R CNN
F 2 "Diode_SMD:D_SOD-123" H 5500 2800 50  0001 C CNN
F 3 "~" H 5500 2800 50  0001 C CNN
	1    5500 2800
	0    -1   -1   0   
$EndComp
$Comp
L keyboard_parts:KEYSW K17
U 1 1 61A2B7B4
P 6800 2550
F 0 "K17" H 6800 2783 60  0000 C CNN
F 1 "KEYSW" H 6800 2450 60  0001 C CNN
F 2 "Alps_Only:ALPS-1U" H 6800 2550 60  0001 C CNN
F 3 "" H 6800 2550 60  0000 C CNN
	1    6800 2550
	1    0    0    -1  
$EndComp
$Comp
L Device:D D17
U 1 1 61A2B7BA
P 6350 2800
F 0 "D17" V 6396 2720 50  0000 R CNN
F 1 "D" V 6305 2720 50  0000 R CNN
F 2 "Diode_SMD:D_SOD-123" H 6350 2800 50  0001 C CNN
F 3 "~" H 6350 2800 50  0001 C CNN
	1    6350 2800
	0    -1   -1   0   
$EndComp
$Comp
L keyboard_parts:KEYSW K18
U 1 1 61A2B7C0
P 7700 2550
F 0 "K18" H 7700 2783 60  0000 C CNN
F 1 "KEYSW" H 7700 2450 60  0001 C CNN
F 2 "Alps_Only:ALPS-1U" H 7700 2550 60  0001 C CNN
F 3 "" H 7700 2550 60  0000 C CNN
	1    7700 2550
	1    0    0    -1  
$EndComp
$Comp
L keyboard_parts:KEYSW K19
U 1 1 61A2B7C6
P 8650 2600
F 0 "K19" H 8650 2833 60  0000 C CNN
F 1 "KEYSW" H 8650 2500 60  0001 C CNN
F 2 "Alps_Only:ALPS-1U" H 8650 2600 60  0001 C CNN
F 3 "" H 8650 2600 60  0000 C CNN
	1    8650 2600
	1    0    0    -1  
$EndComp
$Comp
L Device:D D19
U 1 1 61A2B7CC
P 8200 2850
F 0 "D19" V 8246 2770 50  0000 R CNN
F 1 "D" V 8155 2770 50  0000 R CNN
F 2 "Diode_SMD:D_SOD-123" H 8200 2850 50  0001 C CNN
F 3 "~" H 8200 2850 50  0001 C CNN
	1    8200 2850
	0    -1   -1   0   
$EndComp
$Comp
L keyboard_parts:KEYSW K20
U 1 1 61A2B7D2
P 9650 2600
F 0 "K20" H 9650 2833 60  0000 C CNN
F 1 "KEYSW" H 9650 2500 60  0001 C CNN
F 2 "Alps_Only:ALPS-1U" H 9650 2600 60  0001 C CNN
F 3 "" H 9650 2600 60  0000 C CNN
	1    9650 2600
	1    0    0    -1  
$EndComp
$Comp
L Device:D D20
U 1 1 61A2B7D8
P 9200 2850
F 0 "D20" V 9246 2770 50  0000 R CNN
F 1 "D" V 9155 2770 50  0000 R CNN
F 2 "Diode_SMD:D_SOD-123" H 9200 2850 50  0001 C CNN
F 3 "~" H 9200 2850 50  0001 C CNN
	1    9200 2850
	0    -1   -1   0   
$EndComp
$Comp
L keyboard_parts:KEYSW K21
U 1 1 61A2B7DE
P 10700 2600
F 0 "K21" H 10700 2833 60  0000 C CNN
F 1 "KEYSW" H 10700 2500 60  0001 C CNN
F 2 "Alps_Only:ALPS-1U" H 10700 2600 60  0001 C CNN
F 3 "" H 10700 2600 60  0000 C CNN
	1    10700 2600
	1    0    0    -1  
$EndComp
$Comp
L Device:D D21
U 1 1 61A2B7E4
P 10250 2850
F 0 "D21" V 10296 2770 50  0000 R CNN
F 1 "D" V 10205 2770 50  0000 R CNN
F 2 "Diode_SMD:D_SOD-123" H 10250 2850 50  0001 C CNN
F 3 "~" H 10250 2850 50  0001 C CNN
	1    10250 2850
	0    -1   -1   0   
$EndComp
$Comp
L keyboard_parts:KEYSW K12
U 1 1 61A2B7EA
P 2200 2550
F 0 "K12" H 2200 2783 60  0000 C CNN
F 1 "KEYSW" H 2200 2450 60  0001 C CNN
F 2 "Alps_Only:ALPS-1U" H 2200 2550 60  0001 C CNN
F 3 "" H 2200 2550 60  0000 C CNN
	1    2200 2550
	1    0    0    -1  
$EndComp
$Comp
L Device:D D12
U 1 1 61A2B7F0
P 1750 2800
F 0 "D12" V 1796 2720 50  0000 R CNN
F 1 "D" V 1705 2720 50  0000 R CNN
F 2 "Diode_SMD:D_SOD-123" H 1750 2800 50  0001 C CNN
F 3 "~" H 1750 2800 50  0001 C CNN
	1    1750 2800
	0    -1   -1   0   
$EndComp
$Comp
L keyboard_parts:KEYSW K11
U 1 1 61A2B7F6
P 1300 2550
F 0 "K11" H 1300 2783 60  0000 C CNN
F 1 "KEYSW" H 1300 2450 60  0001 C CNN
F 2 "Alps_Only:ALPS-1U" H 1300 2550 60  0001 C CNN
F 3 "" H 1300 2550 60  0000 C CNN
	1    1300 2550
	1    0    0    -1  
$EndComp
$Comp
L Device:D D11
U 1 1 61A2B7FC
P 850 2800
F 0 "D11" V 896 2720 50  0000 R CNN
F 1 "D" V 805 2720 50  0000 R CNN
F 2 "Diode_SMD:D_SOD-123" H 850 2800 50  0001 C CNN
F 3 "~" H 850 2800 50  0001 C CNN
	1    850  2800
	0    -1   -1   0   
$EndComp
Wire Wire Line
	10400 2600 10250 2600
Wire Wire Line
	10250 2600 10250 2700
Wire Wire Line
	9350 2600 9200 2600
Wire Wire Line
	9200 2600 9200 2700
Wire Wire Line
	8350 2600 8200 2600
Wire Wire Line
	8200 2600 8200 2700
Wire Wire Line
	7400 2550 7250 2550
Wire Wire Line
	7250 2550 7250 2650
Wire Wire Line
	6500 2550 6350 2550
Wire Wire Line
	6350 2550 6350 2650
Wire Wire Line
	5650 2550 5500 2550
Wire Wire Line
	5500 2550 5500 2650
Wire Wire Line
	4700 2600 4550 2600
Wire Wire Line
	4550 2600 4550 2700
Wire Wire Line
	3800 2550 3650 2550
Wire Wire Line
	3650 2550 3650 2650
Wire Wire Line
	2850 2550 2700 2550
Wire Wire Line
	2700 2550 2700 2650
Wire Wire Line
	1900 2550 1750 2550
Wire Wire Line
	1750 2550 1750 2650
Wire Wire Line
	1000 2550 850  2550
Wire Wire Line
	850  2550 850  2650
Wire Wire Line
	850  2950 850  3150
Wire Wire Line
	850  3150 1750 3150
Wire Wire Line
	10250 3150 10250 3000
Wire Wire Line
	1750 2950 1750 3150
Connection ~ 1750 3150
Wire Wire Line
	1750 3150 2700 3150
Wire Wire Line
	2700 2950 2700 3150
Connection ~ 2700 3150
Wire Wire Line
	2700 3150 3650 3150
Wire Wire Line
	3650 2950 3650 3150
Connection ~ 3650 3150
Wire Wire Line
	3650 3150 4550 3150
Wire Wire Line
	4550 3000 4550 3150
Connection ~ 4550 3150
Wire Wire Line
	4550 3150 5500 3150
Wire Wire Line
	5500 2950 5500 3150
Connection ~ 5500 3150
Wire Wire Line
	5500 3150 6350 3150
Wire Wire Line
	6350 2950 6350 3150
Wire Wire Line
	8200 3000 8200 3150
Wire Wire Line
	8200 3150 9200 3150
Wire Wire Line
	9200 3000 9200 3150
Connection ~ 9200 3150
Wire Wire Line
	9200 3150 10250 3150
Connection ~ 8200 3150
Connection ~ 6350 3150
Wire Wire Line
	7250 3150 8200 3150
Connection ~ 7250 3150
Wire Wire Line
	7250 2950 7250 3150
Wire Wire Line
	6350 3150 7250 3150
$Comp
L Device:D D18
U 1 1 61A2B837
P 7250 2800
F 0 "D18" V 7296 2720 50  0000 R CNN
F 1 "D" V 7205 2720 50  0000 R CNN
F 2 "Diode_SMD:D_SOD-123" H 7250 2800 50  0001 C CNN
F 3 "~" H 7250 2800 50  0001 C CNN
	1    7250 2800
	0    -1   -1   0   
$EndComp
Connection ~ 1600 2550
Connection ~ 2500 2550
Connection ~ 3450 2550
Connection ~ 4400 2550
Connection ~ 5300 2600
Connection ~ 6250 2550
Connection ~ 7100 2550
Connection ~ 8000 2550
Connection ~ 8950 2600
Connection ~ 850  3150
Wire Wire Line
	850  3150 700  3150
Connection ~ 9950 2600
Connection ~ 11000 2600
Wire Wire Line
	2500 1550 2500 2550
Wire Wire Line
	3450 1550 3450 2550
Wire Wire Line
	4400 1550 4400 2550
Wire Wire Line
	5300 1600 5300 2600
Wire Wire Line
	6250 1550 6250 2550
Wire Wire Line
	7100 1550 7100 2550
Wire Wire Line
	8000 1550 8000 2550
Wire Wire Line
	8950 1600 8950 2600
Wire Wire Line
	9950 1600 9950 2600
Wire Wire Line
	11000 1600 11000 2600
Wire Wire Line
	1600 1550 1600 2550
$Comp
L keyboard_parts:KEYSW K24
U 1 1 61A484A0
P 3150 3550
F 0 "K24" H 3150 3783 60  0000 C CNN
F 1 "KEYSW" H 3150 3450 60  0001 C CNN
F 2 "Alps_Only:ALPS-1U" H 3150 3550 60  0001 C CNN
F 3 "" H 3150 3550 60  0000 C CNN
	1    3150 3550
	1    0    0    -1  
$EndComp
$Comp
L Device:D D24
U 1 1 61A484A6
P 2700 3800
F 0 "D24" V 2746 3720 50  0000 R CNN
F 1 "D" V 2655 3720 50  0000 R CNN
F 2 "Diode_SMD:D_SOD-123" H 2700 3800 50  0001 C CNN
F 3 "~" H 2700 3800 50  0001 C CNN
	1    2700 3800
	0    -1   -1   0   
$EndComp
$Comp
L keyboard_parts:KEYSW K25
U 1 1 61A484AC
P 4100 3550
F 0 "K25" H 4100 3783 60  0000 C CNN
F 1 "KEYSW" H 4100 3450 60  0001 C CNN
F 2 "Alps_Only:ALPS-1U" H 4100 3550 60  0001 C CNN
F 3 "" H 4100 3550 60  0000 C CNN
	1    4100 3550
	1    0    0    -1  
$EndComp
$Comp
L Device:D D25
U 1 1 61A484B2
P 3650 3800
F 0 "D25" V 3696 3720 50  0000 R CNN
F 1 "D" V 3605 3720 50  0000 R CNN
F 2 "Diode_SMD:D_SOD-123" H 3650 3800 50  0001 C CNN
F 3 "~" H 3650 3800 50  0001 C CNN
	1    3650 3800
	0    -1   -1   0   
$EndComp
$Comp
L keyboard_parts:KEYSW K26
U 1 1 61A484B8
P 5000 3600
F 0 "K26" H 5000 3833 60  0000 C CNN
F 1 "KEYSW" H 5000 3500 60  0001 C CNN
F 2 "Alps_Only:ALPS-1U" H 5000 3600 60  0001 C CNN
F 3 "" H 5000 3600 60  0000 C CNN
	1    5000 3600
	1    0    0    -1  
$EndComp
$Comp
L Device:D D26
U 1 1 61A484BE
P 4550 3850
F 0 "D26" V 4596 3770 50  0000 R CNN
F 1 "D" V 4505 3770 50  0000 R CNN
F 2 "Diode_SMD:D_SOD-123" H 4550 3850 50  0001 C CNN
F 3 "~" H 4550 3850 50  0001 C CNN
	1    4550 3850
	0    -1   -1   0   
$EndComp
$Comp
L keyboard_parts:KEYSW K27
U 1 1 61A484C4
P 5950 3550
F 0 "K27" H 5950 3783 60  0000 C CNN
F 1 "KEYSW" H 5950 3450 60  0001 C CNN
F 2 "Alps_Only:ALPS-1U" H 5950 3550 60  0001 C CNN
F 3 "" H 5950 3550 60  0000 C CNN
	1    5950 3550
	1    0    0    -1  
$EndComp
$Comp
L Device:D D27
U 1 1 61A484CA
P 5500 3800
F 0 "D27" V 5546 3720 50  0000 R CNN
F 1 "D" V 5455 3720 50  0000 R CNN
F 2 "Diode_SMD:D_SOD-123" H 5500 3800 50  0001 C CNN
F 3 "~" H 5500 3800 50  0001 C CNN
	1    5500 3800
	0    -1   -1   0   
$EndComp
$Comp
L keyboard_parts:KEYSW K28
U 1 1 61A484D0
P 6800 3550
F 0 "K28" H 6800 3783 60  0000 C CNN
F 1 "KEYSW" H 6800 3450 60  0001 C CNN
F 2 "Alps_Only:ALPS-1U" H 6800 3550 60  0001 C CNN
F 3 "" H 6800 3550 60  0000 C CNN
	1    6800 3550
	1    0    0    -1  
$EndComp
$Comp
L Device:D D28
U 1 1 61A484D6
P 6350 3800
F 0 "D28" V 6396 3720 50  0000 R CNN
F 1 "D" V 6305 3720 50  0000 R CNN
F 2 "Diode_SMD:D_SOD-123" H 6350 3800 50  0001 C CNN
F 3 "~" H 6350 3800 50  0001 C CNN
	1    6350 3800
	0    -1   -1   0   
$EndComp
$Comp
L keyboard_parts:KEYSW K29
U 1 1 61A484DC
P 7700 3550
F 0 "K29" H 7700 3783 60  0000 C CNN
F 1 "KEYSW" H 7700 3450 60  0001 C CNN
F 2 "Alps_Only:ALPS-1U" H 7700 3550 60  0001 C CNN
F 3 "" H 7700 3550 60  0000 C CNN
	1    7700 3550
	1    0    0    -1  
$EndComp
$Comp
L keyboard_parts:KEYSW K30
U 1 1 61A484E2
P 8650 3600
F 0 "K30" H 8650 3833 60  0000 C CNN
F 1 "KEYSW" H 8650 3500 60  0001 C CNN
F 2 "Alps_Only:ALPS-1U" H 8650 3600 60  0001 C CNN
F 3 "" H 8650 3600 60  0000 C CNN
	1    8650 3600
	1    0    0    -1  
$EndComp
$Comp
L Device:D D30
U 1 1 61A484E8
P 8200 3850
F 0 "D30" V 8246 3770 50  0000 R CNN
F 1 "D" V 8155 3770 50  0000 R CNN
F 2 "Diode_SMD:D_SOD-123" H 8200 3850 50  0001 C CNN
F 3 "~" H 8200 3850 50  0001 C CNN
	1    8200 3850
	0    -1   -1   0   
$EndComp
$Comp
L keyboard_parts:KEYSW K31
U 1 1 61A484EE
P 9650 3600
F 0 "K31" H 9650 3833 60  0000 C CNN
F 1 "KEYSW" H 9650 3500 60  0001 C CNN
F 2 "Alps_Only:ALPS-1U" H 9650 3600 60  0001 C CNN
F 3 "" H 9650 3600 60  0000 C CNN
	1    9650 3600
	1    0    0    -1  
$EndComp
$Comp
L Device:D D31
U 1 1 61A484F4
P 9200 3850
F 0 "D31" V 9246 3770 50  0000 R CNN
F 1 "D" V 9155 3770 50  0000 R CNN
F 2 "Diode_SMD:D_SOD-123" H 9200 3850 50  0001 C CNN
F 3 "~" H 9200 3850 50  0001 C CNN
	1    9200 3850
	0    -1   -1   0   
$EndComp
$Comp
L keyboard_parts:KEYSW K32
U 1 1 61A484FA
P 10700 3600
F 0 "K32" H 10700 3833 60  0000 C CNN
F 1 "KEYSW" H 10700 3500 60  0001 C CNN
F 2 "Alps_Only:ALPS-1U" H 10700 3600 60  0001 C CNN
F 3 "" H 10700 3600 60  0000 C CNN
	1    10700 3600
	1    0    0    -1  
$EndComp
$Comp
L Device:D D32
U 1 1 61A48500
P 10250 3850
F 0 "D32" V 10296 3770 50  0000 R CNN
F 1 "D" V 10205 3770 50  0000 R CNN
F 2 "Diode_SMD:D_SOD-123" H 10250 3850 50  0001 C CNN
F 3 "~" H 10250 3850 50  0001 C CNN
	1    10250 3850
	0    -1   -1   0   
$EndComp
$Comp
L keyboard_parts:KEYSW K23
U 1 1 61A48506
P 2200 3550
F 0 "K23" H 2200 3783 60  0000 C CNN
F 1 "KEYSW" H 2200 3450 60  0001 C CNN
F 2 "Alps_Only:ALPS-1U" H 2200 3550 60  0001 C CNN
F 3 "" H 2200 3550 60  0000 C CNN
	1    2200 3550
	1    0    0    -1  
$EndComp
$Comp
L Device:D D23
U 1 1 61A4850C
P 1750 3800
F 0 "D23" V 1796 3720 50  0000 R CNN
F 1 "D" V 1705 3720 50  0000 R CNN
F 2 "Diode_SMD:D_SOD-123" H 1750 3800 50  0001 C CNN
F 3 "~" H 1750 3800 50  0001 C CNN
	1    1750 3800
	0    -1   -1   0   
$EndComp
$Comp
L keyboard_parts:KEYSW K22
U 1 1 61A48512
P 1300 3550
F 0 "K22" H 1300 3783 60  0000 C CNN
F 1 "KEYSW" H 1300 3450 60  0001 C CNN
F 2 "Alps_Only:ALPS-1U" H 1300 3550 60  0001 C CNN
F 3 "" H 1300 3550 60  0000 C CNN
	1    1300 3550
	1    0    0    -1  
$EndComp
$Comp
L Device:D D22
U 1 1 61A48518
P 850 3800
F 0 "D22" V 896 3720 50  0000 R CNN
F 1 "D" V 805 3720 50  0000 R CNN
F 2 "Diode_SMD:D_SOD-123" H 850 3800 50  0001 C CNN
F 3 "~" H 850 3800 50  0001 C CNN
	1    850  3800
	0    -1   -1   0   
$EndComp
Wire Wire Line
	10400 3600 10250 3600
Wire Wire Line
	10250 3600 10250 3700
Wire Wire Line
	9350 3600 9200 3600
Wire Wire Line
	9200 3600 9200 3700
Wire Wire Line
	8350 3600 8200 3600
Wire Wire Line
	8200 3600 8200 3700
Wire Wire Line
	7400 3550 7250 3550
Wire Wire Line
	7250 3550 7250 3650
Wire Wire Line
	6500 3550 6350 3550
Wire Wire Line
	6350 3550 6350 3650
Wire Wire Line
	5650 3550 5500 3550
Wire Wire Line
	5500 3550 5500 3650
Wire Wire Line
	4700 3600 4550 3600
Wire Wire Line
	4550 3600 4550 3700
Wire Wire Line
	3800 3550 3650 3550
Wire Wire Line
	3650 3550 3650 3650
Wire Wire Line
	2850 3550 2700 3550
Wire Wire Line
	2700 3550 2700 3650
Wire Wire Line
	1900 3550 1750 3550
Wire Wire Line
	1750 3550 1750 3650
Wire Wire Line
	1000 3550 850  3550
Wire Wire Line
	850  3550 850  3650
Wire Wire Line
	850  3950 850  4150
Wire Wire Line
	850  4150 1750 4150
Wire Wire Line
	10250 4150 10250 4000
Wire Wire Line
	1750 3950 1750 4150
Connection ~ 1750 4150
Wire Wire Line
	1750 4150 2700 4150
Wire Wire Line
	2700 3950 2700 4150
Connection ~ 2700 4150
Wire Wire Line
	2700 4150 3650 4150
Wire Wire Line
	3650 3950 3650 4150
Connection ~ 3650 4150
Wire Wire Line
	3650 4150 4550 4150
Wire Wire Line
	4550 4000 4550 4150
Connection ~ 4550 4150
Wire Wire Line
	4550 4150 5500 4150
Wire Wire Line
	5500 3950 5500 4150
Connection ~ 5500 4150
Wire Wire Line
	5500 4150 6350 4150
Wire Wire Line
	6350 3950 6350 4150
Wire Wire Line
	8200 4000 8200 4150
Wire Wire Line
	8200 4150 9200 4150
Wire Wire Line
	9200 4000 9200 4150
Connection ~ 9200 4150
Wire Wire Line
	9200 4150 10250 4150
Connection ~ 8200 4150
Connection ~ 6350 4150
Wire Wire Line
	7250 4150 8200 4150
Connection ~ 7250 4150
Wire Wire Line
	7250 3950 7250 4150
Wire Wire Line
	6350 4150 7250 4150
$Comp
L Device:D D29
U 1 1 61A48553
P 7250 3800
F 0 "D29" V 7296 3720 50  0000 R CNN
F 1 "D" V 7205 3720 50  0000 R CNN
F 2 "Diode_SMD:D_SOD-123" H 7250 3800 50  0001 C CNN
F 3 "~" H 7250 3800 50  0001 C CNN
	1    7250 3800
	0    -1   -1   0   
$EndComp
Connection ~ 4400 3550
Connection ~ 5300 3600
Connection ~ 6250 3550
Connection ~ 7100 3550
Connection ~ 8000 3550
Connection ~ 850  4150
Wire Wire Line
	850  4150 700  4150
Wire Wire Line
	2500 2550 2500 3550
Wire Wire Line
	3450 2550 3450 3550
Wire Wire Line
	4400 2550 4400 3550
Wire Wire Line
	5300 2600 5300 3600
Wire Wire Line
	6250 2550 6250 3550
Wire Wire Line
	7100 2550 7100 3550
Wire Wire Line
	8000 2550 8000 3550
Wire Wire Line
	8950 2600 8950 3600
Wire Wire Line
	9950 2600 9950 3600
Wire Wire Line
	11000 2600 11000 3600
Wire Wire Line
	1600 2550 1600 3550
$Comp
L keyboard_parts:KEYSW K36
U 1 1 61A72F9A
P 4100 4550
F 0 "K36" H 4100 4783 60  0000 C CNN
F 1 "KEYSW" H 4100 4450 60  0001 C CNN
F 2 "Alps_Only:ALPS-1U" H 4100 4550 60  0001 C CNN
F 3 "" H 4100 4550 60  0000 C CNN
	1    4100 4550
	1    0    0    -1  
$EndComp
$Comp
L Device:D D36
U 1 1 61A72FA0
P 3650 4800
F 0 "D36" V 3696 4720 50  0000 R CNN
F 1 "D" V 3605 4720 50  0000 R CNN
F 2 "Diode_SMD:D_SOD-123" H 3650 4800 50  0001 C CNN
F 3 "~" H 3650 4800 50  0001 C CNN
	1    3650 4800
	0    -1   -1   0   
$EndComp
$Comp
L keyboard_parts:KEYSW K37
U 1 1 61A72FA6
P 5000 4600
F 0 "K37" H 5000 4833 60  0000 C CNN
F 1 "KEYSW" H 5000 4500 60  0001 C CNN
F 2 "Alps_Only:ALPS-1U" H 5000 4600 60  0001 C CNN
F 3 "" H 5000 4600 60  0000 C CNN
	1    5000 4600
	1    0    0    -1  
$EndComp
$Comp
L Device:D D37
U 1 1 61A72FAC
P 4550 4850
F 0 "D37" V 4596 4770 50  0000 R CNN
F 1 "D" V 4505 4770 50  0000 R CNN
F 2 "Diode_SMD:D_SOD-123" H 4550 4850 50  0001 C CNN
F 3 "~" H 4550 4850 50  0001 C CNN
	1    4550 4850
	0    -1   -1   0   
$EndComp
$Comp
L keyboard_parts:KEYSW K38
U 1 1 61A72FB2
P 5950 4550
F 0 "K38" H 5950 4783 60  0000 C CNN
F 1 "KEYSW" H 5950 4450 60  0001 C CNN
F 2 "Alps_Only:ALPS-1U" H 5950 4550 60  0001 C CNN
F 3 "" H 5950 4550 60  0000 C CNN
	1    5950 4550
	1    0    0    -1  
$EndComp
$Comp
L Device:D D38
U 1 1 61A72FB8
P 5500 4800
F 0 "D38" V 5546 4720 50  0000 R CNN
F 1 "D" V 5455 4720 50  0000 R CNN
F 2 "Diode_SMD:D_SOD-123" H 5500 4800 50  0001 C CNN
F 3 "~" H 5500 4800 50  0001 C CNN
	1    5500 4800
	0    -1   -1   0   
$EndComp
$Comp
L keyboard_parts:KEYSW K39
U 1 1 61A72FBE
P 6800 4550
F 0 "K39" H 6800 4783 60  0000 C CNN
F 1 "KEYSW" H 6800 4450 60  0001 C CNN
F 2 "Alps_Only:ALPS-1U" H 6800 4550 60  0001 C CNN
F 3 "" H 6800 4550 60  0000 C CNN
	1    6800 4550
	1    0    0    -1  
$EndComp
$Comp
L Device:D D39
U 1 1 61A72FC4
P 6350 4800
F 0 "D39" V 6396 4720 50  0000 R CNN
F 1 "D" V 6305 4720 50  0000 R CNN
F 2 "Diode_SMD:D_SOD-123" H 6350 4800 50  0001 C CNN
F 3 "~" H 6350 4800 50  0001 C CNN
	1    6350 4800
	0    -1   -1   0   
$EndComp
$Comp
L keyboard_parts:KEYSW K40
U 1 1 61A72FCA
P 7700 4550
F 0 "K40" H 7700 4783 60  0000 C CNN
F 1 "KEYSW" H 7700 4450 60  0001 C CNN
F 2 "Alps_Only:ALPS-1U" H 7700 4550 60  0001 C CNN
F 3 "" H 7700 4550 60  0000 C CNN
	1    7700 4550
	1    0    0    -1  
$EndComp
Wire Wire Line
	7400 4550 7250 4550
Wire Wire Line
	7250 4550 7250 4650
Wire Wire Line
	6500 4550 6350 4550
Wire Wire Line
	6350 4550 6350 4650
Wire Wire Line
	5650 4550 5500 4550
Wire Wire Line
	5500 4550 5500 4650
Wire Wire Line
	4700 4600 4550 4600
Wire Wire Line
	4550 4600 4550 4700
Wire Wire Line
	3800 4550 3650 4550
Wire Wire Line
	3650 4550 3650 4650
Wire Wire Line
	3650 4950 3650 5150
Wire Wire Line
	3650 5150 4550 5150
Wire Wire Line
	4550 5000 4550 5150
Connection ~ 4550 5150
Wire Wire Line
	4550 5150 5500 5150
Wire Wire Line
	5500 4950 5500 5150
Connection ~ 5500 5150
Wire Wire Line
	5500 5150 6350 5150
Wire Wire Line
	6350 4950 6350 5150
Connection ~ 6350 5150
Wire Wire Line
	7250 4950 7250 5150
Wire Wire Line
	6350 5150 7250 5150
$Comp
L Device:D D40
U 1 1 61A73041
P 7250 4800
F 0 "D40" V 7296 4720 50  0000 R CNN
F 1 "D" V 7205 4720 50  0000 R CNN
F 2 "Diode_SMD:D_SOD-123" H 7250 4800 50  0001 C CNN
F 3 "~" H 7250 4800 50  0001 C CNN
	1    7250 4800
	0    -1   -1   0   
$EndComp
Wire Wire Line
	4400 3550 4400 4550
Wire Wire Line
	5300 3600 5300 4600
Wire Wire Line
	6250 3550 6250 4550
Wire Wire Line
	7100 3550 7100 4550
Wire Wire Line
	8000 3550 8000 4550
Text GLabel 700  2150 0    50   Input ~ 0
row0
Text GLabel 700  3150 0    50   Input ~ 0
row1
Text GLabel 700  4150 0    50   Input ~ 0
row2
Text GLabel 1600 1350 1    50   Input ~ 0
col0
Text GLabel 2500 1300 1    50   Input ~ 0
col1
Text GLabel 3450 1300 1    50   Input ~ 0
col2
Text GLabel 4400 1300 1    50   Input ~ 0
col3
Text GLabel 5300 1300 1    50   Input ~ 0
col4
Text GLabel 6250 1300 1    50   Input ~ 0
col5
Text GLabel 7100 1300 1    50   Input ~ 0
col6
Text GLabel 8000 1300 1    50   Input ~ 0
col7
Text GLabel 8950 1300 1    50   Input ~ 0
col8
Text GLabel 9950 1300 1    50   Input ~ 0
col9
Text GLabel 11000 1300 1    50   Input ~ 0
col10
Text GLabel 3000 5150 0    50   Input ~ 0
row3
Wire Wire Line
	3000 5150 3650 5150
Connection ~ 3650 5150
$EndSCHEMATC
