
(module QFP80P1200X1200X120-44N (layer F.Cu) (tedit 614D545F)
  (descr "")
  (fp_text reference REF** (at -4.55 -8.365 0) (layer F.SilkS)
    (effects (font (size 1.0 1.0) (thickness 0.15)))
  )
  (fp_text value QFP80P1200X1200X120-44N (at 6.88 8.365 0) (layer F.Fab)
    (effects (font (size 1.0 1.0) (thickness 0.15)))
  )
  (pad 12 smd roundrect (at -4.0 5.68) (roundrect_rratio 0.07) (size 0.55 1.6) (layers F.Cu F.Mask F.Paste))
  (pad 13 smd roundrect (at -3.2 5.68) (roundrect_rratio 0.07) (size 0.55 1.6) (layers F.Cu F.Mask F.Paste))
  (pad 14 smd roundrect (at -2.4 5.68) (roundrect_rratio 0.07) (size 0.55 1.6) (layers F.Cu F.Mask F.Paste))
  (pad 15 smd roundrect (at -1.6 5.68) (roundrect_rratio 0.07) (size 0.55 1.6) (layers F.Cu F.Mask F.Paste))
  (pad 16 smd roundrect (at -0.8 5.68) (roundrect_rratio 0.07) (size 0.55 1.6) (layers F.Cu F.Mask F.Paste))
  (pad 17 smd roundrect (at 0.0 5.68) (roundrect_rratio 0.07) (size 0.55 1.6) (layers F.Cu F.Mask F.Paste))
  (pad 18 smd roundrect (at 0.8 5.68) (roundrect_rratio 0.07) (size 0.55 1.6) (layers F.Cu F.Mask F.Paste))
  (pad 19 smd roundrect (at 1.6 5.68) (roundrect_rratio 0.07) (size 0.55 1.6) (layers F.Cu F.Mask F.Paste))
  (pad 20 smd roundrect (at 2.4 5.68) (roundrect_rratio 0.07) (size 0.55 1.6) (layers F.Cu F.Mask F.Paste))
  (pad 21 smd roundrect (at 3.2 5.68) (roundrect_rratio 0.07) (size 0.55 1.6) (layers F.Cu F.Mask F.Paste))
  (pad 22 smd roundrect (at 4.0 5.68) (roundrect_rratio 0.07) (size 0.55 1.6) (layers F.Cu F.Mask F.Paste))
  (pad 34 smd roundrect (at 4.0 -5.68) (roundrect_rratio 0.07) (size 0.55 1.6) (layers F.Cu F.Mask F.Paste))
  (pad 35 smd roundrect (at 3.2 -5.68) (roundrect_rratio 0.07) (size 0.55 1.6) (layers F.Cu F.Mask F.Paste))
  (pad 36 smd roundrect (at 2.4 -5.68) (roundrect_rratio 0.07) (size 0.55 1.6) (layers F.Cu F.Mask F.Paste))
  (pad 37 smd roundrect (at 1.6 -5.68) (roundrect_rratio 0.07) (size 0.55 1.6) (layers F.Cu F.Mask F.Paste))
  (pad 38 smd roundrect (at 0.8 -5.68) (roundrect_rratio 0.07) (size 0.55 1.6) (layers F.Cu F.Mask F.Paste))
  (pad 39 smd roundrect (at 0.0 -5.68) (roundrect_rratio 0.07) (size 0.55 1.6) (layers F.Cu F.Mask F.Paste))
  (pad 40 smd roundrect (at -0.8 -5.68) (roundrect_rratio 0.07) (size 0.55 1.6) (layers F.Cu F.Mask F.Paste))
  (pad 41 smd roundrect (at -1.6 -5.68) (roundrect_rratio 0.07) (size 0.55 1.6) (layers F.Cu F.Mask F.Paste))
  (pad 42 smd roundrect (at -2.4 -5.68) (roundrect_rratio 0.07) (size 0.55 1.6) (layers F.Cu F.Mask F.Paste))
  (pad 43 smd roundrect (at -3.2 -5.68) (roundrect_rratio 0.07) (size 0.55 1.6) (layers F.Cu F.Mask F.Paste))
  (pad 44 smd roundrect (at -4.0 -5.68) (roundrect_rratio 0.07) (size 0.55 1.6) (layers F.Cu F.Mask F.Paste))
  (pad 1 smd roundrect (at -5.68 -4.0) (roundrect_rratio 0.07) (size 1.6 0.55) (layers F.Cu F.Mask F.Paste))
  (pad 2 smd roundrect (at -5.68 -3.2) (roundrect_rratio 0.07) (size 1.6 0.55) (layers F.Cu F.Mask F.Paste))
  (pad 3 smd roundrect (at -5.68 -2.4) (roundrect_rratio 0.07) (size 1.6 0.55) (layers F.Cu F.Mask F.Paste))
  (pad 4 smd roundrect (at -5.68 -1.6) (roundrect_rratio 0.07) (size 1.6 0.55) (layers F.Cu F.Mask F.Paste))
  (pad 5 smd roundrect (at -5.68 -0.8) (roundrect_rratio 0.07) (size 1.6 0.55) (layers F.Cu F.Mask F.Paste))
  (pad 6 smd roundrect (at -5.68 0.0) (roundrect_rratio 0.07) (size 1.6 0.55) (layers F.Cu F.Mask F.Paste))
  (pad 7 smd roundrect (at -5.68 0.8) (roundrect_rratio 0.07) (size 1.6 0.55) (layers F.Cu F.Mask F.Paste))
  (pad 8 smd roundrect (at -5.68 1.6) (roundrect_rratio 0.07) (size 1.6 0.55) (layers F.Cu F.Mask F.Paste))
  (pad 9 smd roundrect (at -5.68 2.4) (roundrect_rratio 0.07) (size 1.6 0.55) (layers F.Cu F.Mask F.Paste))
  (pad 10 smd roundrect (at -5.68 3.2) (roundrect_rratio 0.07) (size 1.6 0.55) (layers F.Cu F.Mask F.Paste))
  (pad 11 smd roundrect (at -5.68 4.0) (roundrect_rratio 0.07) (size 1.6 0.55) (layers F.Cu F.Mask F.Paste))
  (pad 23 smd roundrect (at 5.68 4.0) (roundrect_rratio 0.07) (size 1.6 0.55) (layers F.Cu F.Mask F.Paste))
  (pad 24 smd roundrect (at 5.68 3.2) (roundrect_rratio 0.07) (size 1.6 0.55) (layers F.Cu F.Mask F.Paste))
  (pad 25 smd roundrect (at 5.68 2.4) (roundrect_rratio 0.07) (size 1.6 0.55) (layers F.Cu F.Mask F.Paste))
  (pad 26 smd roundrect (at 5.68 1.6) (roundrect_rratio 0.07) (size 1.6 0.55) (layers F.Cu F.Mask F.Paste))
  (pad 27 smd roundrect (at 5.68 0.8) (roundrect_rratio 0.07) (size 1.6 0.55) (layers F.Cu F.Mask F.Paste))
  (pad 28 smd roundrect (at 5.68 0.0) (roundrect_rratio 0.07) (size 1.6 0.55) (layers F.Cu F.Mask F.Paste))
  (pad 29 smd roundrect (at 5.68 -0.8) (roundrect_rratio 0.07) (size 1.6 0.55) (layers F.Cu F.Mask F.Paste))
  (pad 30 smd roundrect (at 5.68 -1.6) (roundrect_rratio 0.07) (size 1.6 0.55) (layers F.Cu F.Mask F.Paste))
  (pad 31 smd roundrect (at 5.68 -2.4) (roundrect_rratio 0.07) (size 1.6 0.55) (layers F.Cu F.Mask F.Paste))
  (pad 32 smd roundrect (at 5.68 -3.2) (roundrect_rratio 0.07) (size 1.6 0.55) (layers F.Cu F.Mask F.Paste))
  (pad 33 smd roundrect (at 5.68 -4.0) (roundrect_rratio 0.07) (size 1.6 0.55) (layers F.Cu F.Mask F.Paste))
  (fp_circle (center -7.48 -4.0) (end -7.38 -4.0) (layer F.SilkS) (width 0.2))
  (fp_circle (center -7.48 -4.0) (end -7.38 -4.0) (layer F.Fab) (width 0.2))
  (fp_line (start 5.05 5.05) (end -5.05 5.05) (layer F.Fab) (width 0.127))
  (fp_line (start 5.05 -5.05) (end -5.05 -5.05) (layer F.Fab) (width 0.127))
  (fp_line (start 5.05 5.05) (end 5.05 -5.05) (layer F.Fab) (width 0.127))
  (fp_line (start -5.05 5.05) (end -5.05 -5.05) (layer F.Fab) (width 0.127))
  (fp_line (start 5.05 5.05) (end 4.595 5.05) (layer F.SilkS) (width 0.127))
  (fp_line (start 5.05 -5.05) (end 4.595 -5.05) (layer F.SilkS) (width 0.127))
  (fp_line (start -5.05 5.05) (end -4.595 5.05) (layer F.SilkS) (width 0.127))
  (fp_line (start -5.05 -5.05) (end -4.595 -5.05) (layer F.SilkS) (width 0.127))
  (fp_line (start 5.05 5.05) (end 5.05 4.595) (layer F.SilkS) (width 0.127))
  (fp_line (start 5.05 -5.05) (end 5.05 -4.595) (layer F.SilkS) (width 0.127))
  (fp_line (start -5.05 5.05) (end -5.05 4.595) (layer F.SilkS) (width 0.127))
  (fp_line (start -5.05 -5.05) (end -5.05 -4.595) (layer F.SilkS) (width 0.127))
  (fp_line (start -6.73 6.73) (end 6.73 6.73) (layer F.CrtYd) (width 0.05))
  (fp_line (start -6.73 -6.73) (end 6.73 -6.73) (layer F.CrtYd) (width 0.05))
  (fp_line (start -6.73 6.73) (end -6.73 -6.73) (layer F.CrtYd) (width 0.05))
  (fp_line (start 6.73 6.73) (end 6.73 -6.73) (layer F.CrtYd) (width 0.05))
)